…
*1. Calculate the total number of steps taken per day*

```r
compute_total_steps <- function(data){ 
    data %>% 
      group_by(date) %>% 
      summarize(total_steps_per_day = sum(steps, na.rm = TRUE))
}
total_steps <- compute_total_steps(activity_data)
# have a look at the result data frame
total_steps
```

```
## # A tibble: 61 × 2
##          date total_steps_per_day
##        <date>               <int>
## 1  2012-10-01                   0
## 2  2012-10-02                 126
## 3  2012-10-03               11352
## 4  2012-10-04               12116
## 5  2012-10-05               13294
## 6  2012-10-06               15420
## 7  2012-10-07               11015
## 8  2012-10-08                   0
## 9  2012-10-09               12811
## 10 2012-10-10                9900
## # ... with 51 more rows
```
…
